*** Life<Cell> 42x31 ***

Generation = 0, Population = 52.
-------------------------------
------------------0------------
----------------------0--------
-------------------------------
-----------------0--0----------
-----0--------0--------0-------
---------------0---0-----------
---------------0---------------
-------------------------------
--------0----------------------
-----0------0----0-------------
-------------------------------
---------------0---------------
-----------------0-------------
-------------------------------
-------------------------------
-------------------------------
--0----------------------------
-------------------------------
-------------------------------
--------0----0-----------------
-------------------------------
----------0--------------------
-------0---------------------00
---------0------------0--------
--------------0--------0-------
-0---------------0----0--------
-------------------------0-----
-------------0--0-----0--------
-----------------------------0-
-------------------------------
--------0-----------0--0-------
-------------------------------
-------------------------------
---0-------0----00-------------
------0-------------------0----
----0--------------0-----------
-------------------------0-----
---0-----0---------------------
-------------------------------
----------------------0--------
----0------------------0-------

Generation = 1, Population = 189.
------------------0------------
-----------------0-0--0--------
------------------0--0-0-------
-----------------0--0-0--------
-----0--------0-0-00-0-0-------
----0-0------0---0-00-0-0------
-----0---------10-0-0--0-------
--------------010--0-----------
--------0------0---------------
-----0-0-0--0----0-------------
----0-0-0--0-0--0-0------------
-----0------0--0-0-------------
--------------0-00-------------
---------------00-0------------
-----------------0-------------
-------------------------------
--0----------------------------
-0-0---------------------------
--0----------------------------
--------0----0-----------------
-------0-0--0-0----------------
--------0-0--0-----------------
-------0-0-0-----------------00
------0-000-----------0-----011
-------00-0---0------0-------00
-0-------0---0-0-0----0-0------
0-0-----------0-0-0--0---0-----
-0-----------0--00------0-0----
------------0-00-0---0-0-0---0-
-------------0--0-----0-----0-0
--------0-----------0--0-----0-
-------0-0---------0-00-0------
--------0-----------0--0-------
---0-------0----00-------------
--0-0-0---0-0--0110-------0----
---000-0---0----00-0-----0-0---
---0-00-----------0-0----00----
---00----0---------0----0-0----
--0-0---0-0--------------0-----
---0-----0------------0--------
----0----------------0---------
---0-0------------------0------

Generation = 2, Population = 173.
----------------------0--------
----------------0---0----------
-----------------0------0------
-----0--------0---0----0-------
------------------1------------
---0---0----0--00----0---0-----
-------------0---0--10---------
-----0--0----01--0-----0-------
-----0------0--1-0-0-----------
------0---0----0---------------
---0---0--0---0----0-----------
--------0--------1-------------
-----0------00-----------------
---------------1---0-----------
---------------0---------------
--0--------------0-------------
-------------------------------
0---0--------------------------
--------0----0-----------------
--0----------------------------
------0----0---0---------------
-------0---------------------00
---------1--00--------0--------
-----0---1----0--------0---01-*
-0-----1--10-----0--0-0-0------
-------0----0---0----0-------00
---0-----0---0-01--00---0------
--------------0------------0-0-
-0---------0--11-10-0-0-0------
--------0-----------0--0-0-0---
-------------0--0-----0--------
------0---0-------0--11--0---0-
---0-------0----00-------------
------0-0-----------0--0--0----
-0--10---0---001--1------------
----1---0---------------01--0--
--0---1--0-0----0----0---------
------0----------------0--10---
-0--10-0---0-------0--0--------
----0------------------0-0-----
---0-----0----------0---0------
--0-0-0--------------0-0-0-----

Generation = 3, Population = 451.
----------------0---00-0-------
---------------0---0-00-0------
-----0--------0-----0----0-----
----0-0------0-0--10--0--------
---0-0-0----0-0000*0-0-0-0-----
--0-0-0-0--0--011-0--10-0-0----
---0-0-00----1-1-100*-00-0-----
----0100-0----*-0-00000-0------
----01--0-00---*-1--0--0-------
---0-----0100--100-------------
--0-0----010-0---00-0----------
---0-0---00-000-0-00-----------
----0-0-0--01100-0-0-----------
-----0------000*0-0-0----------
--0-----------0100-0-----------
-0-0-----------00-0------------
0-0-0------------0-------------
-0-0-0--0----0-----------------
0-0-0--0-0--0-0----------------
-0-0--0-0--0-0-0---------------
--0--0----0-0-0-0------------00
--------00-000-0------0-----011
-----0-00*0011-------0-----000-
-0--0-000*-00--0-0--0-0---01*-.
0-0--00*0-*1--0---00-0-0-0-000-
-0-0--01000-----1--00-------011
--0-0--00-0---01-0011--0-0-0--0
-0-0-----0-0--100000--0---0---0
0-0-----0-0-00-*-*1-1--0-----0-
-0-----0-0-0-0000000100-0---0--
------0-0-0-0-00-00-0-1----0-0-
---0-0-0-0---0-----00*-00-0-0-0
--0-0---0---0--011--0000-00--0-
-0-00------0-0000000-00-00-0---
0-00-1--0-0-01-*11-00--0000-0--
-000*-00-0-0-0000-0--0-01*00-0-
-0-000*0----0--0-0--0-0000000--
-00-0-1--0------0--0-0--00*10--
0-00-10-0-0-0-----0-00-0-000---
-0--1--0-0-0-------00---0-0----
----0-0-0-0--------0---0-0-----
-0-0---0-0--------------0-0----

*** Life<Cell> 37x27 ***

Generation = 0, Population = 36.
---0------------0---------0
---------------------0-----
---------------------------
---------------------------
-0---------0--------------0
------00-------------------
---------------------------
---------------0-----------
---------------------------
------------------0--------
---------------------------
----------------0----------
---------------------------
-----0---------------------
-------------------0-------
-0-------------------------
-----------0---------------
0--------------------------
----------------------0----
--0-0--0-------------------
------------0-----0--------
------0--------0-----------
---------------------------
---------------------------
---------------------------
---------------------------
---------------------------
--------------0------------
---------0-----------------
-----------0----------0----
------------------0----0---
---------------------------
-0-------------------------
----------------0----------
---------------------------
---0--------------------0--
---------------0-----------

Generation = 1, Population = 131.
--0-0----------0-0---0---0-
---0------------0---0-0---0
---------------------0-----
-0---------0--------------0
0-0---00--0-0------------0-
-0---0110--0--------------0
------00-------0-----------
--------------0-0----------
---------------0--0--------
-----------------0-0-------
----------------0-0--------
---------------0-0---------
-----0----------0----------
----0-0------------0-------
-0---0------------0-0------
0-0--------0-------0-------
00--------0-0--------------
-0---------0----------0----
0-0-0--0-------------0-0---
-0---00-0---0-----0---0----
--0-0-00---0-0-0-0-0-------
-----0-0----0-0-0-0--------
------0--------0-----------
---------------------------
---------------------------
---------------------------
--------------0------------
---------0---0-0-----------
--------0-00--0-------0----
---------00-0-----0--0-----
-----------0-----0-0----0--
-0----------------0----0---
0-0-------------0----------
-0-------------0-0---------
---0------------0-------0--
--0-0----------0-------0-0-
---0----------0-0-------0--

Generation = 2, Population = 122.
-0-0-0--------0-0-0-----0--
-------------------0---0---
-0-0-------0----0----------
------00-------------0-----
---0-----0---0----------0-0
----01--10-----0-----------
-0---------0--------------0
------00-----0---00--------
---------------------------
---------------0----0------
---------------------------
-----0--------0------------
-------------------0-------
-0-0---0--------0----------
-----------0-----0---0-----
1--0-0---------------------
---------0---0-----0--0----
01--0--0-------------------
-----------00-----0-0---0--
--0-01---0-----0-----------
----------0---0-0---0-0----
--0----10----0---0---------
------------0-----0--------
------0--------0-----------
---------------------------
--------------0------------
---------0-----------------
-----------00---0-----0----
-------0---1------0----0---
---------1---00-----0---0--
-0-------0------0---00---0-
-----------0----0-----0----
---0--------------0----0---
---0----------0---0-----0--
-0-------------0-----------
-0---0----------0-----0---0
-------------0-0-0---------

Generation = 3, Population = 339.
0-----0------0-----------0-
-----0-----0--0-----0-0----
0---0-00--0-0--0-0-0-0-0---
-0---01100-0-0--0---0-0-0-0
--0--000-10-0-00-----0-0---
-0--1*11*-00-00-0-------0--
0-0-0000000-00-0-00------0-
-0---0110--00-0-0110------0
------00-----0-0-00-0------
--------------0-0--0-0-----
-----0--------00----0------
----0-0------0-0---0-------
-0-0-0-0------0-0-0-0------
0---0-0-0--0---0---0-0-----
00---0-0--0-0-----0-0-0----
-00---0--0-0-0---0-0-00----
-0-000-00-0-0-0---0-00-0---
1*00-00-00-000----000-0-0--
000--0-0-00110-0-0---0-0-0-
-0--1*0-0--00-----0---0-0--
----00-00--0---0---0---0---
-0-0--0*100---------0-0----
--0---000--0---0---0-------
-----0-0----0-0-0-0--------
------0-------00-----------
---------0---0-0-----------
--------0-000-0-0-----0----
-------0-00-10-0-00--0-----
------0-000*-00-00-00------
-0-----00*0001100-001------
0-0-----0100-00010-0-1----0
-0-0-----00-0--0100-0----0-
--010------0--0-0010-------
-0010--------0---010-----0-
0100-0------------0---0-0-0
010-0-0------0-0-----0-0-0-
-0---0------0---0-0---0---0

*** Life<Cell> 19x34 ***

Generation = 0, Population = 14.
----------------------------------
-----------------0----------------
----------------------------------
----------------0-0----------0----
----------------------------------
--------------------------------0-
--0-------------------------0-----
-------------0--------------------
----------------------------------
----------------------------------
--------------------0--0----------
-----------------0----------------
----------------------0-----------
----------------------------------
----------------------------------
----------------------------------
-----------------0----------------
----0-----------------------------
----------------------------------

Generation = 1, Population = 54.
-----------------0----------------
----------------0-0---------------
----------------000----------0----
---------------0---0--------0-0---
----------------0-0----------0--0-
--0-------------------------0--0-0
-0-0---------0-------------0-0--0-
--0---------0-0-------------0-----
-------------0--------------------
--------------------0--0----------
-----------------0-0-00-0---------
----------------0-0-0-00----------
-----------------0---0-0----------
----------------------0-----------
----------------------------------
-----------------0----------------
----0-----------0-0---------------
---0-0-----------0----------------
----0-----------------------------

Generation = 2, Population = 49.
----------------------------------
---------------01-10---------0----
----------------------------------
--------------0-000-0------0---00-
--0-------------------------0-----
-------------0--0-0----------00---
0---0---------------------0---0---
-----------0---0----------------0-
--0-----------------0--0----0-----
-------------0---0----------------
------------------0--1---0--------
---------------0---0--------------
-----------------------10---------
-----------------0----------------
-----------------0----0-----------
----0-----------------------------
---------------0---0--------------
--0---0---------------------------
-----------------0----------------

Generation = 3, Population = 156.
---------------00-00---------0----
--------------01*-*10-------0-0---
--------------00-0-00------0-0-00-
--0----------0--1-1--0----0---0110
-0-0---------00--0--0---------000-
0-0-0-------0-00---0------0--1-0--
-0-0-0-----0-0-00-0------0-0--100-
0-0-0-----0-0-0-0---0--0--0-0-00-0
-0-0-------0-0-0-0-0-00-0--0-0--0-
--0---------0-0-0---00-0-0--0-----
-------------0-0----0-0-0-0-------
--------------0-0---00-000--------
---------------0-0-0--0*10--------
----------------010---000---------
----0-----------010--0-0----------
---0-0---------0-0-0--0-----------
--0-0-0-------0-0-0-0-------------
-0-0-0-0-------0-0-0--------------
--0---0---------0-0---------------

*** Life<Cell> 22x42 ***

Generation = 0, Population = 38.
-----------------0------0-----------------
------------------------------------------
-----------------------------------------0
----------------------------0-------------
----------------------------0----0--------
------------------------------------------
--0---------------------------------------
-----------0-------0----------------------
-0-0---000--------------------0---0--0----
------------------0-----0-----------------
--------------------------0---------------
-----------------0------------0-----------
----------------0----0--------------------
--0-----------------------------------0---
-------0-0-----0--------------------------
----------0-------------------------------
------------------0---------------0-------
-------------------------------0----------
---------0--------------------------------
-----0----------------0-------------------
--------------0---------------------------
--0---------------------------------------

Generation = 1, Population = 134.
----------------0-0----0-0----------------
-----------------0------0----------------0
----------------------------0-----------0-
---------------------------010---0-------0
---------------------------010--0-0-------
--0-------------------------0----0--------
-0-0-------0-------0----------------------
-000---0000-0-----0-0---------0---0--0----
0---0-01-100------00----0----0-0-0-00-0---
-0-0---000-------0-0---0-00---0---0--0----
-----------------00-----00-0--0-----------
------------------0--0----0--0-0----------
--0------------0----0-0-------0-------0---
-0-0---0-0-----00----0---------------0-0--
--0---0-------0-0---------------------0---
-------0---0---0--0---------------0-------
----------0------0-0-----------0-0-0------
---------0--------0-----------0-0-0-------
-----0--0-0-----------0--------0----------
----0-0--0----0------0-0------------------
--0--0-------0-0------0-------------------
-0-0----------0---------------------------

Generation = 2, Population = 144.
---------------0-0-0--0-0-0--------------0
----------------------------0-------------
-----------------0------0---1----0-----0-0
--------------------------0---0-----------
--0-----------------------0---00---0-----0
-----------0-------0--------1-------------
01-10--000------------------0-0--00--0----
---------1---0---01--0--0-----------------
-000--1*-*11--------------0-0------11--0--
-----------0----01-10-0---1---1-----------
-0-0---000------0----0--1---0-1---0--0----
--0------------0--10----0---0---0-----0---
-------0-0----01--00---0--0---------------
0---0-----0------0------------0-----0---0-
-----0-0-0-0-0--100--0------------0-------
--0-----0---0------------------0------0---
-------0-------00---0-----------0---0-----
-----0----0-----------0------0---0--------
-------0---0--0---0---------------0-------
--00---0------------0---0------0----------
---------0--0---0-------------------------
0-0-00----------------0-------------------

Generation = 3, Population = 368.
--------------0-----00-----00-----------0-
---------------0---0--0---0010---0-----0--
----------------0-0----0-000*00-0-0---0---
--0--------------0------0010101--0-0---0--
-0-0-------0-------0-----01010-10-0-0---0-
00000--0000-0-----0-0-----00*0-0-000-0---0
1*-*1001--00-0---000-0--0--01--001100-0---
0-0-0-0----00-0-01*00-00-00---0--00000-0--
01-100*.-*--00--0-00000-001--00---0**00-0-
--0---0-0--10--0-*-*10-000*0-0*0--0000-0--
0-0-0-01-100----1-0----0*0001-*000-00-----
--------0------1-0--00--10001000-00----0--
0-0-0-0------01-0---0-0--0-00-0-0---0-0-0-
-0-0-----0---000-100-0-0--0--0-0--00-0-0-0
0-0-----0-0-0-00*1100-0-------00-0-00-0-0-
-0-0-0-0-------0-00-00--------0---0-00-0--
--0--00---0-0-0110-0-00------0-----0-00---
----0-0--0----000-0-00-0----0-0-----0-----
--00-0010---00-0-0-00-0-0----0-0---0------
-0110-0100-00-0-0-00-0-0-0----0-0-0-------
0--000-00-00-0-0-0--0-0-0------0----------
----110--0--0---0----0-0------------------

*** Life<Cell> 12x27 ***

Generation = 0, Population = 27.
----------0----0---0-------
-0--------------------0----
-0--------------0----------
---------------------------
-----0--------------0-0----
0----------0----0---------0
-0-0-0---------------------
--------------0------------
0----0----0----------------
------------0--------------
--------------0---0--------
-------0-------0--------0--

Generation = 1, Population = 81.
-0-------0-0--0-0-0-0-0----
010-------0----00--0-0-0---
010------------0-0----0----
-0---0----------0---0-0----
0---0-0----0----0--0---0--0
---0------0-0--0-0--0-0--0-
------0----0--0-0---------0
00-0------0--0-0-----------
-0--0-0--0-00-0------------
0----0----00-00---0--------
-------0----00---0-0----0--
------0-0-------0-0----0-0-

Generation = 2, Population = 79.
-1------0-0-00-01--0-0-----
---0----------------0---0--
---0-0----0---01--000-1----
01---------0----1-----1---0
-----0-0--------1-0-0-0-0--
0-0------0---0----0-----0-0
00---0-0--0---------0-0----
1----------0--------------0
010--0-00---1-1---0--------
-------0--1----0--------0--
0----0----0-1-------0------
-----0-0-0--00-0-0----0-0-0

Generation = 3, Population = 141.
0-00---0----11-1*00-0-0-0--
-10100--0---000-0-001-00-0-
0101--0--0---01*-01---*00-0
1*00---0----0-0-*0-0-0-000-
-00-0---00-0-0-0*-1---1-10-
10-0----0---0-0-0010---01--
11--0---0----0----00---00--
-00-----0-----0---0-0-0--0-
--100---100------0-0----0-0
-00---01-0*0----0-0-0--0-0-
-0--010---1-*----0-0-00---0
0---01-----0-1----0-00-----

*** Life<Cell> 41x12 ***

Generation = 0, Population = 15.
-------0---0
-0---0-----0
------------
------------
-0----------
------0--0--
------------
------------
0-----------
------------
-------00---
------------
------------
------------
------------
------------
------------
------------
------------
------------
------------
------------
---------0--
------------
------------
-----------0
------------
------------
------------
------------
----------0-
------------
0-----------
------------
------------
------------
------------
------------
------------
------------
------------

Generation = 1, Population = 53.
-0---00-0-01
0-0-0-00--01
-0---0-----0
-0----------
0-0---0--0--
-0---0-00-0-
------0--0--
0-----------
-0----------
0------00---
------0110--
-------00---
------------
------------
------------
------------
------------
------------
------------
------------
------------
---------0--
--------0-0-
---------0--
-----------0
----------0-
-----------0
------------
------------
----------0-
---------0-0
0---------0-
-0----------
0-----------
------------
------------
------------
------------
------------
------------
------------

Generation = 2, Population = 48.
-----1-0----
-------1-0-*
-1-----0---1
-1---00--0-0
---0--------
----0--11--0
00----------
------0--0--
0-0----00---
------------
0----01--10-
------------
-------00---
------------
------------
------------
------------
------------
------------
------------
---------0--
------------
-------0---0
-----------0
---------0--
---------0-0
------------
-----------0
----------0-
------------
0-------0---
------------
0-0-------0-
------------
0-----------
------------
------------
------------
------------
------------
------------

Generation = 3, Population = 121.
----0--100-1
-0---00----.
0*0--0-10-0-
0*00011-0--1
-00--00000--
00---00**00-
110-0-0000-0
-00--0----0-
---0---11---
--0--000000-
-0--01*11*10
0----000000-
------0110--
-------00---
------------
------------
------------
------------
------------
---------0--
--------0-0-
-------0-0-0
------0-0-01
-------0-001
--------010-
--------01--
---------0--
------------
---------0--
0-------0-0-
-0-----0-0--
--0-----0-0-
---0-----0-0
--0-------0-
-0----------
0-----------
------------
------------
------------
------------
------------

*** Life<Cell> 3x5 ***

Generation = 0, Population = 15.
00000
00000
00000

Generation = 1, Population = 8.
-111-
1---1
-111-

Generation = 2, Population = 6.
-*-*-
-0-0-
-*-*-

Generation = 3, Population = 6.
0.-.0
1---1
0.-.0

*** Life<Cell> 36x34 ***

Generation = 0, Population = 37.
-------------------0--------------
----------0-0---------------------
-------------0--------------------
----------------------------------
---------0---------0------------0-
------------------------0---------
----------------------------------
-----0---0------------------------
----------------------------------
-------0--------------------------
-------------0--------------------
----------------------------------
--------0-----------0-----0-------
--------0-------------------------
-----0----------------------------
----------------------------------
----------------------------------
----------------------------------
--0-------------------------------
------------------------------0---
-------------------0--------------
--------0-------------------------
---------------0------------------
----------------------------------
------------------------------0---
----------------------------------
-------0--------------------------
--------------0----------------0--
----------------0-----------------
-------------------0--------------
----------0-----------------------
-----------------0----------------
-----0----0--------------0--------
----------0--------------------0--
0--0------------------------------
----------------------------------

Generation = 1, Population = 138.
----------0-0-----0-0-------------
---------0---------0--------------
----------0---0-------------------
---------0---0-----0------------0-
--------0-0-------0-0---0------0-0
---------0---------0---0-0------0-
-----0---0--------------0---------
----0-0-0-0-----------------------
-----0-0-0------------------------
------0-0----0--------------------
-------0----0-0-------------------
--------0----0------0-----0-------
-------010---------0-0---0-0------
-----0-010----------0-----0-------
----0-0-0-------------------------
-----0----------------------------
----------------------------------
--0-------------------------------
-0-0--------------------------0---
--0----------------0---------0-0--
--------0---------0-0---------0---
-------0-0-----0---0--------------
--------0-----0-0-----------------
---------------0--------------0---
-----------------------------0-0--
-------0----------------------0---
------0-0-----0----------------0--
-------0-----0-00-------------0-0-
--------------00-0-0-----------0--
----------0-----0-0-0-------------
---------0-0-----0-0--------------
-----0----------0-0------0--------
----0-0--010-----0------0-0----0--
0--0-0---010-------------0----0-0-
-00-0-----0--------------------0--
0--0------------------------------

Generation = 2, Population = 127.
-------------0---0-0-0------------
--------0-0-0-0-------------------
---------0-0---0----------------0-
----------0-0-----------0---------
-------0---0-0---0---0--------0---
-----0---1------------0---0-------
---------1---------0------------0-
---0---0---0------------0---------
-------------0--------------------
----------------------------------
--------0--0---0----0-----0-------
-------01-------------------------
-----00---0--0----0---0-0---0-----
------0---0-----------------------
---0---01-----------0-----0-------
--------0-------------------------
--0--0----------------------------
------------------------------0---
0---0--------------0--------------
--------0-------------------0---0-
--0------------0-0---0------------
------0---0-------------------0---
-------------0---0-0----------0---
--------0-------------------------
-------0-------0------------0---0-
--------------0----------------0--
-----0---0------0-------------0---
------------0---1--0---------0---0
-------0--0---1---0---------------
--------------0------0---------0--
-----0--0-0-0---0--------0--------
----------0----0---------------0--
0------00-*-0----------0---0------
--------0---0----0-----------0---0
011-------1--------------0--------
----------0--------------------0--

Generation = 3, Population = 370.
--------0-0-----0-----0-----------
-------0-0-0-0---0-0-0----------0-
------------0---0-------0------0-0
-------0-------0-0---0-0-0----0-0-
-----00-00--0-0-0-0-0---0-0--0-0--
----0-000*00-0---0-0---0-0-0--0-0-
---0-0-00*00------0-0-0-0-0----0-0
--0-0-0-000-00-----0---0-0------0-
---0---0---00-0---------0---------
--------0--0-0-0----0-----0-------
--------100-0-0-0--0-0---0-0------
-----0-1-000-0-0--0-0-0-0-0-0-----
----01--10100-0--0-0-0---0-0-0----
---0--1-1010-0----0-0-0-0-0-0-----
--0-0--1-00--------0-0---0-0------
--00-0--10----------0-----0-------
-0-00-0-0---------------------0---
0-0-00-------------0---------0-0--
-0-0-0--0---------0-0-------0-0-0-
0-0-0--0-0-----0-0-0-0-----0-0-0-0
-0-0--0-0-0---0---0-0-0-----0-0-0-
--0--0-0-0-0-0-0---0-0-------010--
------0-0-0-0-0-0---0--------010--
---------0---0-0-0-0--------0-0-0-
------0---------0----------0-0---0
-----0-0-0---0--0-----------0-----
----0-0-0-0-0-0010-0-------------0
-----0-0-000-000*0--0-------0---0-
------0-00-000*000---0-------0-0-0
-----0-00---00100-0-0-0--0----0-0-
----0-00--1--00--0---0--0-0-------
0----0-0-0-0--0--------0-0-0--0-0-
-0----01--.-10-0-0----0-0-0-00-0-0
-00-----10-010--0-0----0-0-00-0-0-
1-*0----00*00----0------0-0--0-0-0
000------010-------------0----0-0-

*** Life<Cell> 23x27 ***

Generation = 0, Population = 45.
-------------------0-------
0----0-0------0----0-------
--------0-0------0---------
----------0--0-0-----------
---0--0--------------------
----0--0-------------------
--------0-------------0----
----------------------0----
----------------------0----
-----------------0-0------0
---------------------0-----
---------------------------
-------------------0-------
---------0-----------0-----
-----------0---------------
------------------0--------
-----------0-0-----0---0---
0-0------0--0---------0----
----------------------0----
---------------------------
-0--------------------0---0
---------------------------
---------------------0-00--

Generation = 1, Population = 124.
0----0-0------0---010------
-0--0-----0--0-0-0010------
0----0----10-0000-00-------
---0--0-00100---00---------
--0--0----0--0-0-----------
-----0----------------0----
----0----0-----------010---
--------0------------0-0---
-----------------0-0-010--0
----------------0---000--0-
-----------------0-00-0---0
-------------------0-0-----
---------0--------0-00-----
--------0-00-------00-0----
---------00-0-----0--0-----
-------------0---0-----0---
0-0------00-0-0-----0---0--
---0----0-0--------0-01----
0-0------0--0--------010---
-0------------------------0
0-0------------------0-0-0-
-0-------------------0000-0
--------------------0--110-

Generation = 2, Population = 136.
--------0-0--------*-0-----
0-00-0-0-01-01-101---0-----
---0----0-*-0--1-----------
0---00--1--11000-1-0-------
-0--01--0-1------0----0----
--0--10--00--0-0------1----
---0------0---------0-*-0--
----0--0---------0-00---0-0
--------0-----------01*-0--
---------------0-0-0-11-0-0
----------------------10---
---------0-------0-1-1----0
-----------0-----0---------
-------0---1------01---0---
---------1-0-----------0---
0-0---------0---0---000----
---------1---0-0-0----0--0-
--0-0--0--10--0---0-0---0--
-0---------0-0-----00-*10-0
0-0------0--0---------0----
---0----------------01010-0
---------------------------
-0-----------------0----*1-

Generation = 3, Population = 207.
0-00-0---01000-0000.-10----
--1------1*--*---*01010----
---1----10*0-0-----0-0-----
------00-01**----*--0-0----
---0-*-010*-0-0-0100-010---
------10-1100---00--00-00--
-----000--10-0-0-0--1-.-100
-----00---0-----0--11--0---
----0----0-----0---0-**--0-
--------0-----0-----0-*01--
---------0-----0-----0-1---
--------0-00----01-----0-0-
-------0-0010---01---0-0--0
------0-000-0-----1*0-010--
0-0----00--1----0-0000-10--
---0---------------01----0-
0---0--00--0--0-0-----10--0
-----00-0-*-00-----010--1-0
--0-0--0-0-10------1--*----
-0------0-0--------0---0---
0---0----0--0------01-1-1--
-0-0---------------00000-00
0-0---------------0-0--1.*0

*** Life<Cell> 14x39 ***

Generation = 0, Population = 21.
--------0------0-----------------------
-------------------------0-------------
---------------------------------------
-------------0----------0--------------
------------------0---------0----------
---------------------------------------
-----------------------0---------------
-----0-------0---0--------0------------
--------0------------------0----0------
---------------------------------------
---------------------------------------
-0-------------------------------------
-----0--------------0------00----------
-----------------------------0---------

Generation = 1, Population = 73.
-------0-0----0-0--------0-------------
--------0------0--------0-0------------
-------------0----------00-------------
------------0-0---0----0-0--0----------
-------------0---0-0----0--0-0---------
------------------0----0----0----------
-----0-------0---0----0-0-0------------
----0-0-0---0-0-0-0----0-0------0------
-----0-0-0---0---0----------0--0-0-----
--------0------------------0----0------
-0-------------------------------------
0-0--0--------------0------00----------
-0--0-0------------0-0----011----------
-----0--------------0------0--0--------

Generation = 2, Population = 72.
------0-0-0--0-0-0---------------------
-------------0---------01--0-----------
--------0------0--0---------0----------
-----------0---0------0--10------------
----------------0---0--0--0---0--------
-----0-----------0------0-0------------
--------0---------0--0---0-00---0------
---0---0---0-------0----0---0----------
------0---0------------0-0---00---0----
-0---0-------0---0--------0------------
-----0--0-----------0-------0---0------
---0-------------------------0---------
---0---0----------0---0--01--00--------
-0-------------------------1-0-0-------

Generation = 3, Population = 172.
-----0-----001----0----00--0-----------
------0---0-010--00---01*00------------
-------0-0-0-00100-0--00000--0---------
--------0-0-0-01--0-00--0*-00-0--------
-----0-----0-------0-0-----0-0-0-------
----0-0-0-----------00---01-0-0-0------
---0-0---0-0--------0-0-0-01-0-0-0-----
--0-0-------0-------00---0--1-0-0-0----
-0-0-----0---0---0-0--0-0----110-0-0---
0-0-01--0-0-0-0-0-0-0--0---0000-0-0----
-0-00100-0---0---0-0-0----00---0-0-----
--0100-00---------0-0-0--00--1--0------
-0010-0-0--------0-0-0-001*-111--------
0-00---0----------0---0--0---10-0------

*** Life<Cell> 50x40 ***

Generation = 0, Population = 73.
----------------------0------0----------
-------------------0--------------------
-------0------------------------------0-
----------------------------------------
-----0--------------------0-------------
----------------------------------------
--------------------------0-------------
----------------------0-----------------
----------------------------------------
----------------------------------------
------------0-------------0-------------
---------0----------------0-------------
-------------------------0--------------
--0----------------------------------0--
-------0--------------------------------
----------00----------------------------
-0-----------------0--------0-----------
----------------------------------------
----------------------------------------
-----------0-----0----------------------
----0--------------0------------------0-
---------------------0------------------
---------------------0------------------
----------------------------------------
--------------------------------00------
-0--------------------------------------
---------------0--------0---------------
--------------------0------------------0
----------------------------------------
-------------------------0--------------
---------------------0-------0----------
--------0-------------------0-----------
--------------------------0-0-----------
----------------------------------------
-------------0--------0-----------------
----------------------------------------
------------0--------------------0------
---0--------0---------------------------
---------------0--------0----------0----
-----------------------0----------------
----------------------0-----------------
---------00-------0---------------0-----
-------------------------------------0--
--00------------------------------------
---------------0------------0----0------
----------------------------------------
-----------0-----0----------------------
------------------------------0---------
--------0------------0----------00------
---------0---------------0--------------

Generation = 1, Population = 263.
-------------------0-0-0----0-0---------
-------0----------0-0-0------0--------0-
------0-0----------0-----------------0-0
-----0-0------------------0-----------0-
----0-0------------------0-0------------
-----0----------------------------------
----------------------0--0-0------------
---------------------0-0--0-------------
----------------------0-----------------
------------0-------------0-------------
---------0-0-0-----------010------------
--------0-0-0-------------10------------
--0------0--------------0------------0--
-0-0---0-----------------0----------0-0-
--0---0-0-00-------------------------0--
-0-----0-0110------0--------0-----------
0-0-------00------0-0------0-0----------
-0-----------------0--------0-----------
-----------0-----0----------------------
----0-----0-0---0-00------------------0-
---0-0-----0-----00-00---------------0-0
----0--------------0010---------------0-
--------------------010-----------------
---------------------0----------00------
-0-----------------------------0110-----
0-0------------0--------0-------00------
-0------------0-0---0--0-0-------------0
---------------0---0-0--0-------------0-
--------------------0----0-------------0
---------------------0--0-0--0----------
--------0-----------0-0--0----0---------
-------0-0-----------0----001-----------
--------0----------------0--10----------
-------------0--------0---0-0-----------
------------0-0------0-0----------------
------------00--------0----------0------
---0-------010------------------0-0-----
--0-0------010-0--------0--------0-0----
---0--------0-0-0--------0--------0-0---
---------------0-------------------0----
---------00-------0--0------------0-----
--------0110-----0-0--0----------0-0-0--
--00-----00-------0---------------0-0-0-
-0110----------0------------0----0---0--
--00----------0-0----------0-0--0-0-----
-----------0---0-0----------0----0------
----------0-0---0-0-----------0---------
--------0--0-----0---0-------0-000------
-------0------------0-0--0----00110-----
----------0----------0--0-0-----00------

Generation = 2, Population = 255.
-------0------------0-0-0--0-0-0------0-
-----------------0---0------------------
---------0------------0---0--0------0---
-------------------0--------------------
---0--------------------0-0-0---------0-
----------------------0-----------------
-----0------------------0-0-0-----------
--------------------0---0---------------
------------0---------------------------
---------0------------0---1-------------
----------0---0---------01--0-----------
--0----0---0------------0---0--------0--
-------0----0----------0--00------------
0---0----000--------------0--------0---0
-0---0---0---------0-----0--0-----------
--0-----01--10-----------------------0--
---0---0---------0---0----0---0---------
----------0------0----------------------
-0--0-----------------------0---------0-
---------0---0-0---1-0------------------
--0---0----------1------------------0---
-----------0-----0-1---0----------------
----0------------------0--------00----0-
-0-------------------1------------------
---------------0-----0--0-----01--10----
---0----------------0------------------0
-------------0---0----0---0-----00------
-0----------------0---0--0-----------0-0
---------------0-----0--0----0----------
--------0-----------0--0---00----------0
-------------------0---0--000--0--------
------0---0--------------01---0---------
-------------0-------00-0-0-*10---------
--------0-------------------1-----------
-----------01--0----0---0-0-0----0------
---0--------1---------------------------
----------0--100------0-0------0--------
-0---0----0---0--------0----------------
------------10---0--------0----------0--
---0-----00-0-----0--0---0--------0-----
---------------0----0--------------0-0--
--00---01--10---0---0--0--------0---0---
---------------0------0-----0----0-0---0
01--10---00-------0---------------0-----
-----------0-0------------0---00---0-0--
--00--------------------------0---------
--------00---0-----0-0------0---0-------
---------0---------------0--0---1-------
------0---00-----0-0---0------11--10----
-------0-0-0-----------0-0-0--0---------

Generation = 3, Population = 657.
------0-0--------0-0-0---00-----0----0-0
-------0-0------0-0---0-0-00---0----0-0-
--------0-0------0-0---0-0-00-0----0-0--
---0-----0--------0-0-0-0---00------0-0-
--0-0--------------0--00-----0-------0-0
---0-0---------------0-0--------------0-
----0-0-------------0-001----0----------
-----0------0------0-0-0100-0-----------
---------0-0-0------0-0-0-0-------------
--------0---0-0------0-00--00-----------
--0----0-----0-0------00-*-010-------0--
-0-0--010-----0---------1-1-10------0-0-
0-0-0-010000-0--------0--0-1-------0-0-0
---0---00--1-------0---0--1-0-----0-0-0-
------0----000----0-0---0--0-0-----0-0-0
-----0--1-11*10--0-0-0---00-0-0-----0-0-
----0-0--00-00--010-0-0--0-0-0-0-----0--
-0-00--0-0-0----010--0----0-0-0-------0-
0-00-0---00--0-0-0-0-0-----0-0-------0-0
-00-0-0-0-0-0---000---0-----0-------0-0-
-0-0-0-0-0-0-0-00*0--0-0-----------0-0--
--0-0-0---0-0---01--0-010-------00--0-0-
-0-0-0-----0-----0-0-1010------0110--0-0
0-0-0----------0----0*000-----000000--0-
-0-0----------0-0----100-0---01*11*10--0
--0-0--------0-0-0-0--0-0-0---000000--0-
-0-0--------0-0-0---0010---0---0110--0--
0-0----------0-0---0--10-----0--00--0---
-0------0-----0-0-0--------0--0------0--
-------0-0-----0------01-------0------0-
------0-0-0-------0---010--1-0--0------0
-----0-0-0-0-0-----0-000-1*---1---------
------0-0-0-0-0-----011--01-*--0--------
-------0-0-000-0----000----0--0--0------
---0----0-01-00-0--0-0-0----10--0-0-----
--0-0-----0-*-0-----0-0---0-0--0-0------
-0-0-0---010-*110----0-0-0----0-0-------
0-0-0-0--010101--0--------0----0-----0--
-0-0-0---0-0-1--0----0-0---0------0-0-0-
--0-0---011-1--0---0--0-0--------0------
--0----00000--0---001--0-0------0---0-0-
-0110-01*11*10-0-0-010--0---0--0---0---0
000000-000000-0---0-00-----0-0----0---0-
1*11*10-011--0-0-0-0--0---0-0-00---0-0-0
000000---0----0---0------0-0-0-10-----0-
-0110---00-0-------0-0----0-001-0--0-0--
--00---01-0-0-0---0---0--0-0100010------
------0--1-0-0---0---0-00-00100-*000----
-----0---01-0---0---0-010--000-*-1*10---
----------010----0-0--01----001---00----

*** Life<Cell> 17x50 ***

Generation = 0, Population = 82.
-------------0----------0-----------0-------0-----
---------------------0--0----0--------------------
----------------------------------------------0--0
-0------0----------------------------------------0
-0-------------0----0------0-------------------0-0
--------------0--------------0---0----------------
---0--0---0-------------------------------0-0-----
--------------0--0-0---------------------0--0---0-
---------------------0---------------------0------
--------0----------0--------------0---------0-----
-----------0---0-----------------0----------------
-----00--0----0--0---------00------0--------------
--------0---0-------------0-----0----------0-----0
------------------0---------00----0----0---0---00-
-----0-----0----------------0----0---0------------
--0-0---------00----------0--000---------0--------
-----0----------0-------0-----0----------------0--

Generation = 1, Population = 239.
------------0-0------0-010---0-----0-0-----0-0----
-------------0------0-0010--0-0-----0-------0-0--0
-0------0------------0--0----0---------------0-001
010----0-0-----0----0------0------------------000-
010-----0-------0--0-0----0-00---0------------0--1
-0-0--0---0--0------0------00-0-0-0-------0-0--0-0
--0-00-0-0-0-----0-0---------0---0----------10--0-
---0--0---0--0-00---00------------------0---10-0-0
--------0-----0--0--0-0-----------0------00-0---0-
-------0-0-0---0--0-00-------------0---------0----
-----00-000-0---00-0-------00---0--0--------0-----
----0110--0000--0-0--------110--000-0------0-----0
-----000---0-00--00------0---0-0-000---0--010--0--
-----0--0--00----0-0------00-10-0--0-00-0-010-011-
--0---0---0-0-00--0-------0010000---0-00-0-0---00-
-0---0-----0-011--------00-0-11100---0--0-0----0--
--0---0-------0--0-----0-00---1----------0----0-0-

Generation = 2, Population = 228.
-----------0-0-0------0-*-0-------0-0-0---0-0----0
-0------0----------0--11--00---0-----------------1
-1-----------0-0----0---1--0--------0-----------1-
---0--0---0---0------0--0--------0-------------1-0
------0---0--0---00---0--0---1------------0-0010-*
-1------0---0-0-00-0-------1-------0-----0--1---01
----11------0--0----00-----0------------0-00*-00-0
--------0---0-0110---1-------0---00----0--00*-----
---0--0---00---0---0---0---------0-------11-10----
-----0---10------0-0-1-----00---0--10----00-0-0-0-
--------11--1----1---0----0----01--1-------------0
---01------11--01-1------00-*-0--1---0-0---10--00-
-----11-------10--------0-----0---1--0---0---0-1-0
--0-010--0-----001--0-------0*--1--101---0----1--0
---0-0-000--10--0-------0------11------1---1---1-0
0-0-0-0-----01--000-----1--10--*110------------10-
---0---0---0--1-0-0---0-0-1---*-00---0-------0-0-0

Generation = 3, Population = 399.
-0------0-0-----0--0-010.-1----0-0-----0-0---0--01
010----0-0-0------0--0-*10--0-0-0-0---0---0-0----*
0*00--0-0-0-0-0-0-----0-*0-10--0-0-0-0-----------1
-10-0010-010-0---00----01--0-0--0-0-0-----0-00-*01
-1-0-0100010--0---1----0--000-0--0-0------------0*
0-0-0000-00010-01-0--00--00*00----0-0-----0----01*
-0-0**0----0-0010---1-0---0100---000-----0-1.-1101
---00000-00-1-1--100-*00---00-0-0-10--0---11.-00-0
--0-0--00--1---1--010-0-0--000---1-00--00-*0*1--0-
---00-------0--001-1-*00---110--1-0-10--0---10----
---000-0*---*0-0-*-0010---1----1--0*-0-0-000--000-
--01*-1-000*-0--*0-0-0---1--.-1----001--000*1-0-10
--000--0-0-000*1000-0--0--0---100-----000101--0*01
-0-01----10-00--1*00-0-----01*--*0-*--000101---11-
0-0--1-1--00--0--00-0--010-0-00-*-00000-000-0--*01
-----0-000-----11--0--00-0-*11-.-*10-0-0---0-00*10
0-------0-0-----1010-0--1---00.0----0-0-----0--10-

*** Life<Cell> 35x8 ***

Generation = 0, Population = 65.
--0-----
--0-----
--0-----
---00--0
00------
-0---0--
--0-----
-----00-
--00----
0--0----
0-0-----
-0------
0-0-----
---00-0-
---0----
-------0
----0---
---0-00-
--0-----
0-0-0-00
-00-----
-0-0-0-0
0---0-0-
-0----0-
---0-0--
-0----0-
---0----
--0-----
-0--0-0-
-0--0--0
--------
-0------
-0---000
--------
--------

Generation = 1, Population = 127.
-010----
-0-0----
-01-0--0
00-1100-
1-0000-0
-1--0-0-
---0--0-
---00110
001-000-
10010---
10------
0-0-----
-0--0-0-
0---1--0
--01--00
---00-0-
------00
----0110
001-00-0
-0----11
----000-
-10-0-0-
-0---01-
--000-10
--0---0-
0-0----0
-0--0-0-
----0-0-
01-01---
010010--
----0--0
010--000
010-01-1
-0---000
--------

Generation = 2, Population = 127.
0---0---
0--1---0
-1*-1---
-----110
*-11----
---0101-
-0010---
00--1*-1
-1--11--
*-1---0-
*-000---
1--00-0-
0--01---
--0-*001
001-00--
----1--0
---0--1-
0000-**1
11*-----
-1---0--
--00--1-
0-1-1--0
010001*-
----10*1
00--0010
-0100-0-
---01-1-
0-----10
--0-*-0-
-*-1-100
----10-1
-*-00--1
----1*--
-1------
-0---000

Generation = 3, Population = 134.
10---0-0
1---0-0-
-**0--0-
00-1-*-1
.-*----0
0101*-*0
---*1000
11--*.--
0*-0---0
*0*----0
*--1-0--
-0-11--0
10--*--0
--10.1-*
1---1---
000-*---
00-1--*0
-11--***
--.---00
-*000---
0--1----
11--*-0-
--1--*.0
--0-*-.-
1---11--
---110--
00------
-000-0*1
0--0*0-0
0.0---1-
---0--0-
0.-1100*
-----*01
0*0-0-00
010-01-1

*** Life<Cell> 10x19 ***

Generation = 0, Population = 10.
0----------------0-
-------------------
----------------0--
---------------0---
-0----------------0
-------------------
--------------0----
-------------------
------0------------
---0------0--------

Generation = 1, Population = 30.
-0--------------0-0
0---------------00-
-----------------0-
-0------------0---0
0-0------------0-0-
-0------------0---0
-------------0-0---
------0-------0----
---0-0-0--0--------
--0-0-0--0-0-------

Generation = 2, Population = 31.
--0------------010-
---------------0---
00------------0--1-
-------------0---0-
---0----------0---0
---------------0---
-0----0-----0---0-0
---0------0--------
----0---0-----0----
-0-0-0--0-0-0------

Generation = 3, Population = 61.
-0-0----------0--10
000------------1---
110-------------0*0
00-0--------0-0-01-
--0-0--------------
-0-0--0-----0------
0-00-0-0--00-0-----
-00---0-00-00-0-0-0
-0-0---010--00-0---
0---0-001----00----

*** Life<Cell> 9x26 ***

Generation = 0, Population = 57.
----0--0---0-0-0---------0
---0------0-0000-0---0----
-0-0--0-------------00--0-
-0-0--0-0--0--------00----
---00---0--000---00--00000
-------------------------0
0--0-0------0----0--------
0-0------------0------0-0-
--------00-0----00----0---

Generation = 1, Population = 119.
-----00-0---010100---0--0-
-001--00-0-011----0--10-00
01--00100-000000-0-0-100-0
01---01-1001-0---000-1-0-0
-00-1000100--10-0110------
0---00--0--0-0----0--000-1
10----0----0-0-00-0---0-00
1----0--00-00-0------01--0
0-0----011--0---110--0100-

Generation = 2, Population = 120.
-00001-0-----*---1--01-01-
---*-01---0--*0-00--0*-0--
-*--11-1----1--1-1-1-*1-0-
-*--01*-*1--0-00-111-*01-1
0-1---1--1-00*1-1*--0-0---
1000--0-1--1---0----01110*
*10-00-0-00-01011-10-0-011
--0-0--------0---0--0-*-01
1--0-001*-0-1000*-100-*-1-

Generation = 3, Population = 127.
01-1--0-0-0-0*---*00----*0
---.-1*0-0-0-*10110--.010-
0.0--*---000*-0*0-0*0.----
-*-0-*.0*-0--0--0*--0.-*0-
1-*-1--01*--1.--**--1--00-
*1-1--10-0-*0-01000--***1*
**10-10-01101*-**0*1-1---*
--10100-00--0-0-0-0010*01-
-0--01--.---*1--*1*---.-*-

*** Life<Cell> 9x39 ***

Generation = 0, Population = 36.
---0---------0------------0----0-------
-----0-----0------------00------------0
---0---------------0--00-0--0--0-------
--------------0-------0----0--0--------
-----0------------------0--------------
0-----------0-0---------0----------0---
----0----0-----------------------------
---------------------------0--0--------
---------0--0------0--------------0--0-

Generation = 1, Population = 101.
--0-00-----00-0---------0--0--0-0-----0
----0-0---0-00-----0--0-1---0--------0-
--0-00-----0--0---0-00-1010--0--0-----0
---0-0-------0-0---0-01-000--0---------
0---0-0-----0---------0010-0--0----0---
-0--00---0-0---0-------010--------0-0--
0--0-0--0-0-0-0---------0--0--0----0---
----0-------0------0------0-00-0--0--0-
--------0-00-0----0-0------0--0--0-00-0

Generation = 2, Population = 98.
-0---1-----1-0-0---0--00100--0---0-----
---0---0-0---10--------0--0---0-----0-0
-0-0---------0---0--1--*-*-0-100-0-----
0----1-----0--0-0---0---1---01--0--0--0
----1--0-0---------0---1-10-0--0-------
0-0-------0-0---0---------0------0---0-
--0--100-0-01------0----1---------0--0-
0-----------1-0---------00--11--0--0---
----0--0--110-0--0-0-0----------0-0110-

Generation = 3, Population = 185.
0-000-00-00--10-0-0-0011---00---0-0-0-0
--01000---000*1--0-00----01--01----0---
---100-0-0-0010---00*00*0*0-0-110-000--
---0--00-00-0-------10-0-00----0--0-00-
--00--0----00-0---0---0-1*--1-0--0-0-00
--10000--0-010-0-0-----01-100--00---010
-0100*-1--01*00-0-0-0--0*-0-00--0---010
-00-000--000--10-0---0-0-100**001001---
0--0-00-00*---100-----0-00--00-01-1*-10

*** Life<Cell> 26x4 ***

Generation = 0, Population = 3.
----
----
----
----
----
----
----
----
----
0---
--0-
----
----
----
----
----
----
----
----
----
----
----
--0-
----
----
----

Generation = 1, Population = 11.
----
----
----
----
----
----
----
----
0---
-00-
00-0
--0-
----
----
----
----
----
----
----
----
----
--0-
-0-0
--0-
----
----

Generation = 2, Population = 10.
----
----
----
----
----
----
----
0---
--0-
0-1-
1---
0---
--0-
----
----
----
----
----
----
----
--0-
----
0---
----
--0-
----

Generation = 3, Population = 29.
----
----
----
----
----
----
0---
-00-
-010
1-*0
-00-
100-
00-0
--0-
----
----
----
----
----
--0-
-0-0
0-0-
-0--
0-0-
-0-0
--0-

*** Life<Cell> 39x2 ***

Generation = 0, Population = 51.
0-
--
-0
--
00
0-
00
-0
0-
--
0-
00
00
00
00
00
--
--
00
00
00
00
00
00
00
--
-0
00
--
00
00
0-
-0
-0
00
00
00
--
-0

Generation = 1, Population = 43.
-0
00
0-
0-
-1
-0
--
01
--
--
1-
1-
11
11
11
--
00
00
--
11
11
11
11
11
--
0-
-1
1-
--
--
1-
10
-1
--
-1
11
--
0-
0-

Generation = 2, Population = 35.
-1
--
--
1-
-*
01
0-
1*
00
0-
*0
--
*-
**
--
--
--
--
--
--
**
**
**
--
-0
--
0-
--
0-
0-
*-
--
-*
--
-*
*-
-0
10
10

Generation = 3, Population = 40.
0-
-0
0-
--
0*
--
-0
*.
1-
-0
*1
-0
*-
**
11
--
--
--
--
11
**
..
**
1-
0-
00
-1
--
10
-0
.0
10
0.
--
-.
*1
01
-1
--

*** Life<Cell> 30x43 ***

Generation = 0, Population = 67.
----------------0-----------------0-------0
----------------0--------------------------
---------0--------------------0---------0--
----------------0----------------------0---
-------0---------------------0-------------
-0-----0-----------------------------0--0--
--------------------------------0---0------
0----------------------------------0-----0-
---------------------0----------0---0------
-------------------0--------0------------0-
--------------------------------------0-0--
-------------------------------------------
---------------------0--------0----0-------
-----------------------------------0-------
---0--------------0-------0----------------
----0--------------------------------------
------0-------00---------------------------
-----0---------------------0---------0-----
0--0----------0----------------------------
---------0----------------------------0----
------0-----0--------------------------0---
------------------------0------0-----------
----------------------------00-------------
------------------------0------------------
---------------0-----0---0-----------------
-0----------------------------------0------
-------------------------------------------
--------------------------0---------------0
------------0------------------------0-----
--------------------0-0----0---------------

Generation = 1, Population = 210.
---------------010---------------0-0-----0-
---------0-----010------------0---0-----0-0
--------0-0------------------0-0---------0-
-------0-0-----0-0-----------00-------0----
-0----010-------0-----------0-0------0-00--
0-0---010--------------------0--0-----00-0-
00-----0-----------------------0-0------00-
-0-------------------0------------0-0---0-0
0------------------00-0-----0--0-0---0-----
------------------0-00-----0-0--0---0-0---0
-------------------0--------0--------0-----
---------------------0--------0----0--0-0--
--------------------0-0------0-0--010------
---0--------------0--0----0---0---010------
--0--------------0-0-----0-0-------0-------
-----00-------00--0-------0----------------
----0--0-----0110----------0---------0-----
0--00----------0----------0-0-------0-0----
-00-00---0---0-0-----------0---------00----
0--0--0-0-0-0-0----------------------0-----
-----0-0-0-0-0----------0------0--------0--
------0-----0----------0-0--000-0------0---
---------------------------01100-----------
---------------0-----0-0----00-------------
-0------------0-0---0-0---0---------0------
0-0------------0-----0---0---------0-0-----
-0------------------------0---------0-----0
------------0------------0-0---------0---0-
-----------0-0------0-0---00--------0-0---0
------------0------0---0--0-0--------0-----

Generation = 2, Population = 219.
---------0----0-*-0-----------0-0-0-0------
--------------0-*-0--------------------0---
-----------0----0-----------01--0-0---0----
-0-----1------0-0-0---------------------00-
-----0---------------------0--100---0---1--
1--0-0---0------0---------------------1--10
-------1-------------0-------00-0---0-0----
010----0-----------0--------0----0-----010-
-------------------1---0------0-0---0---0--
0----------------0---1----0---0----0---0-0-
------------------------------0-0--0--0-0-0
-------------------0--------0------1-----0-
---0--------------00---0--0-0---00---00-0--
----0----------------------------0---0-----
-0---00-------000---00--0---0-0----1-------
--0--11--------------------0-------0-0-----
0---1---0---01*-100-------0----------------
---11--0-0---------------0---0-----0--10---
011--1--------010----------------------0---
-----0-0---0------------0--0---0----01--0--
0--00---0-0-----------------00-------0---0-
---------0------------0-0-0--1---0----0----
------0-----0--0-----0---001--11-------0---
-0--------------------0-0-0----0----0------
-------------0---0-0-------000-------------
---0--------------------0-0-------0---0---0
------------0--0-----0---0-----------0-----
-0------------------0-0-0--10-------0---0-0
----------0---0--------------------0---0---
------------------0-----0010-0------------0

Generation = 3, Population = 469.
--------0-0--01-.-10---------0-------0-0---
---------0-0-01-*-10--------000-----0---0--
-0-----0--0-0--0-0---------01*00---0-0--00-
0-0--00-0--0-0--1--0-------00000--0-0-00-10
00-00101-0----0---0-------0-00*-10-0-000*00
-00--1010-0----0-0---0-----0-0-0-----0*0-*1
-000-00*00------0--00-0------11----0--1-0-0
1-10--010---------0100-0---0----0-0----1*10
-00----0---------00*000-0-0-001------0-010-
-0--------------0-000-00-0-0-0-0--01-------
0----------------0-0-0----0-001--00-00-0---
---0---------------10--0--00100--00*00--0--
--0--------------01-0-0-00--10-01-010-1----
-0----0-------000-0000-00-0---0--10101--0--
0------0-----01-10-01100-0-----0-00*0------
0--0---00---00-0-00-00--0-----0---01--0----
-00-*-0----01-.-*-10---------0-------000---
-0-*--0-0-0-00-0-00-----0---0-0---0-00*-0--
1-*--*0--0-0-01-10------00-0-0-0---000-1---
-000-1------0-000------0-00--00-0--01-0----
-0011----0------------0---0-1-00-0---1----0
0--00-0-----0--0---------01--*-00-0------0-
-0---0-0-0-0-00-0---0-0-01-*1-*-00--0---0--
0-0---0-----00-0-0-0-----01000-10--0-0-0---
-0-0--------0-0-0---0-0---01-100--0-0-0---0
--0-0-------00-0-0-0-0-0-0--00---0-0---0-0-
-0-0-------0-00-0-------0--00-----0-----0--
0-0-------0-0-00---0-0----0*10-------------
-0-------0-0-0-0--0-0-0--00-00----0---0----
----------0---0--0-0---01--1--0----0---0-0-

*** Life<Cell> 49x3 ***

Generation = 0, Population = 49.
0-0
000
---
--0
--0
-0-
---
---
0-0
--0
--0
00-
-0-
-0-
0-0
0--
0--
--0
---
---
--0
0--
0--
0-0
---
0--
0--
-0-
---
---
-0-
--0
00-
0--
000
--0
-00
-0-
---
--0
0--
---
-00
-00
---
---
---
-0-
--0

Generation = 1, Population = 72.
101
---
00-
-01
--1
0--
-0-
0-0
--1
00-
0-1
1--
--0
-1-
10-
-00
100
00-
--0
--0
00-
100
-00
1--
--0
10-
1--
--0
-0-
-0-
0--
00-
-1-
-00
---
00-
0--
01-
-00
00-
-00
000
0--
0--
-00
---
-0-
0--
---

Generation = 2, Population = 64.
*-*
--0
1--
---
0-*
--0
0--
-01
--*
-10
-0-
*0-
0--
-*-
*1-
01-
---
--0
0-1
0-1
--0
---
0--
---
---
-1-
*-0
0--
01-
-10
10-
--0
---
0-1
0-0
-10
-0-
---
011
110
01-
-1-
--0
1-0
-11
--0
--0
---
0--

Generation = 3, Population = 68.
.-.
-01
-00
--1
--.
-01
---
-1-
-0.
0--
---
*-0
10-
0*0
.*0
--0
100
001
1--
1--
001
1-0
-0-
1--
-0-
---
*0-
--0
---
0*1
*-0
0--
0--
1-*
10-
---
01-
0-0
-*-
*--
-*-
-*-
0-1
-0-
-**
---
-01
0-0
-0-

*** Life<Cell> 21x38 ***

Generation = 0, Population = 65.
--0---0-------------------------------
----0------------------0-------0------
--------------------------------------
-------0------0--------00-----------0-
-----0--------------------------------
-------------0------------------------
---0------------0--0-------0-------0--
----0--------------0--0------0---0----
----------------0-----------------0---
0---0-------------0---0-----0--------0
------------0--0---0------------------
--------------------------------------
----0-----00--0---------------------0-
-0-------------------------0----------
0-----0------------0------------------
----------------------000------0---0--
----------------0----0----------------
-0-----0----0-------0-0---------------
0------0--------0---------------------
-0----------0--------------0----------
-0-------0---------0-----------0------

Generation = 1, Population = 206.
-0-000-0---------------0-------0------
--00-00---------------0-0-----0-0-----
----0--0------0---------0------0----0-
-----00-0----0-0------0110---------0-0
----0-00-----00--------00-----------0-
---0-0------0-0-0--0-------0-------0--
--0----------0-0-0010-0---0-00---00-0-
-----0------------0100-0---00-0-0--0--
0--------------0-000--------00-----0-0
-0-0-0------0--000---0-0---0-0----0-0-
0---0------0-00-0---0-0-----0--------0
----0-----000-00---0----------------0-
-0-0-0---01100-0-----------0-------0-0
--0-0-0---00--0----0------0-0-------0-
-----0-0----------0-0-000--0---0---0--
0-----0---------0--0--1-10----0-0-0-0-
-0-----0----0--0-0----000------0---0--
--0---010--0-0-----0-0-0--------------
-0----010------0-0--0-0----0----------
-10----0-0-0-0--0--0------0-0--0------
010-----0-0-0-----0-0------0--0-0-----

Generation = 2, Population = 198.
0-0---0-0-----------------------------
--1---10------0------0-010---0---0--0-
--0--00-------------------------------
----01---0--01--0----01*-10----0--0---
-------1--------0--0-------0-------0--
----0--0---0--10---1--000----0---0--0-
-0------------0-011--0---0---1---11--0
0-0-0-0------0---01-110-0--11------1-0
---0--------0-010-1--------0----0--10-
0---0-0---------1--0--0-0-0--10--0-0-0
----1------1-1--1----0------------0-0-
00--1-------------0---0----00--------0
0-0-----01--11-10-----------------0---
---0------------------0000---0-0---0--
0-0-----0-00--0-00------------------0-
-------0----0--------0--*100-0-------0
------01------0-0-0----1--------------
-0-0-0---00-0-0---0-0--1---0---0---0--
010--0--------0-0-00-0---------0------
-*-0---1--0-0-0-----0-0--0---0--------
1*-0-----0-0----00-0-0-------0-0-0----

Generation = 3, Population = 371.
--10-010-0----0------0-000---0---0--0-
00-0--*1-----0-0----0--1-10-0-0-0-00-0
-010-----0--000-0-----0-0-0--0-0-00-0-
--001--00-001*0010-001-.-*1---0-00----
-----00*00-0000-100100--00--00-0-0----
-0-0-0010-0-00-100-*0-1-1--0010-01----
------00---0--101*---1000-00-*0-0-*--1
-0-0---0------000-*-**1---0-*---00-*01
----0------0-01--0*-00-----1-000--0*10
-0--1--0---0000--0--0-------0*10--01--
-0-0-00---0---00*0000-0-0-00000----0-0
-1-0*0--00-00--0-0-0---0--0110--------
10--0--01*11**-*100----000-000-0-0---0
--0-0----0000000-0---01--10-0---0-----
----------11-0--110--000--00---0------
0-0----1--0--0---00-0-1-*--1--0-------
-0-0--1-000--01---10000*-00--0-0---0-0
-10--1-1011----0-0-0--0*0-0-0-010-0-0-
1-100101-0---0-----1---0-0-0-0010--0--
0.01000-0--0--10-000---00-0-010--0----
**-10--00-0---0011--0----0--01----0---

*** Life<Cell> 48x50 ***

Generation = 0, Population = 81.
-----------------------------------------0--------
--------------------------------------------------
--------------------------------------------------
---------------------------0---0------------------
--------------------------------------------------
-----------------------------------------------0--
---------0-0--------------------------------------
--------------------------------------------------
------0-------------------------------------------
------------------------0------0---------------0--
0-------------------------------------------------
-----0-----------------0--------------------------
----------------------0--------------------0------
--------------------------------------------------
----------0---------------------------------------
----------------0-----------0---------------------
---------0---------------------0------------------
---------------------------0--0------------0---0--
--------------------------0-----------------------
--------0----------------------------0-----0------
--------------0-----------------------------------
----0---0------------------------0----------------
--------------------------------------------------
------------------------------------------0-------
------------------------0-----------------0-------
------------------------------------------0-------
--------------0-------0-0-------------------------
--------------------------------------------00----
------------------------0--------------0------0---
---------------0----------------------------------
-------------0------------------------------------
------0------------------------------0--00--------
--0-------------00--------------------------------
------0-----0-------------------------------------
---0------------------------------0---------------
--------------------------------0-------0---------
------------------------0-------------------------
--0----0------------------------------------------
-------0---------0----------------0---------------
--------------------------------------------------
-------------------------0---------------0--------
----------------0---------------------------------
-------------------0-------------0---------0------
--------------------------------------------0---0-
--------------------------------------0----0------
---------0-0--------------------------------------
-------------------0--------------------------0---
-----------------------------0-------------0------

Generation = 1, Population = 280.
----------------------------------------0-0-------
-----------------------------------------0--------
---------------------------0---0------------------
--------------------------0-0-0-0-----------------
---------------------------0---0---------------0--
---------0-0----------------------------------0-0-
--------0---0----------------------------------0--
------0--0-0--------------------------------------
-----0-0----------------0------0---------------0--
0-----0----------------0-0----0-0-------------0-0-
-0---0-----------------00------0---------------0--
0---0-0-----------------0------------------0------
-----0---------------0--------------------0-0-----
----------0-----------0--------------------0------
---------0-0----0-----------0---------------------
---------00----0-0---------0-0-0------------------
--------0-0-----0----------00---0----------0---0--
---------0------------------00------------0-0-0-0-
--------0----------------0----0------0---------0--
-------0-0----0-----------0---------0-0---0-0-----
----0--------0-0-----------------0---0-----0------
---0-0-0-0----0-----------------0-0---------------
----0---0------------------------0--------0-------
------------------------0----------------010------
-----------------------0-0---------------0-0------
--------------0-------0------------------010------
-------------0-0-----0---0----------------0-00----
--------------0-------0----------------0---011----
---------------0-------0-0------------0-0---0--0--
-------------00-0-------0--------------0------0---
------0-----0-00---------------------0--00--------
--0--0-0-----0--00------------------0-00110-------
-0-0--------0--0110------------------0--00--------
--00-0-0---0-0--00----------------0---------------
--0-0-0-----0-------------------00-0----0---------
---0--------------------0------0-00----0-0--------
--0----0---------------0-0------0-------0---------
-0-0--010--------0------0---------0---------------
--0---010-------0-0--------------0-0--------------
-------0---------0-------0--------0------0--------
----------------0-------0-0-------------0-0-------
---------------0-0-0-----0-------0-------0-0------
----------------0-0-0-----------0-0-------0-----0-
-------------------0-------------0----0----0-0-0-0
---------0-0-------------------------0-0--0-----0-
--------0---0------0------------------0----0--0---
---------0-0------0-0--------0-------------0-0-0--
-------------------0--------0-0-----------0-0-0---

Generation = 2, Population = 285.
---------------------------------------0-0-0------
---------------------------0---0------------------
-----------------------------------------0--------
-------------------------0-------0-------------0--
---------0-0--------------------------------------
---------------------------0---0-------------0---0
------00-0-0-0------------------------------------
------------------------0------0------------------
0---0---00-0--------------------------------------
-----0----------------01--0--0---0-----------0---0
0-0---0---------------0--------------------0------
---0---0-------------0--10-----0---------------0--
0---------0---------0---0----------------0---0----
-----0----------0------0----0---------------------
--------01--0---------0--------0-----------0------
--------------0---0-------01---------------0---0--
-------0--10--------------0--0---0----------------
--------0-------0--------0---1--0----0---0-0-----0
---------0----0---------0---0--0------------------
----0-0-0-0----------------0--0--0-0---0-0-0-0-0--
------------0---0---------0-----------------------
--0-----0-0--------------------0---0-0----00------
--------------0---------0-----------------1-------
----0---0------------------------0------0-*-0-----
--------------0---------0-0-------------0---0-----
----------------------------------------0-*--0----
------------0---0---0-0-0-0------------0--1---0---
---------------0---------------------------1--00--
-------------00---------0-0----------0---0--1---0-
------0------1---0-------------------0--00--00----
--0--------0---100------0--------------0------0---
----0-0-0---0--0-------------------0--1---10------
0--10--------001--10--------------0---------------
----0-0-0-0---0-----------------0----0---0--------
-01--0----------00------0-------1---0-------------
--0---00----0-----------------0---1---0---0-------
---0---1---------0----0---0-----------------------
0---00---0----------------------0-------0---------
-----0---0-----0---0----00------0---0----0--------
--0----1--------0---------------------------------
-------0---------0-0---0---0-----00----0----------
--------------0---0-------------------------0---0-
-----------------0---0---0-----0---0--0----0-0----
---------0-0----0-------------------------0-------
---------------------------------0--0---00-0-00---
-------0-0-0-0---------------0-------------10---0-
-----------------0---0----------------0----10---0-
---------0-0---------------0-0-0---------0-0-0----

Generation = 3, Population = 691.
---------------------------0---0------0-----0-----
--------------------------0-0-0-0------0---0------
-------------------------0-0---0-0------0-0----0--
---------0-0------------0-0-----0-0------0----0-0-
--------0---0------------0-0---0-0-----------0-0-0
------00-----0------------0-0-0-0-----------0-0-0-
-----011------0---------0--0-----------------0---0
0---0-000----0---------0-0----0-0-----------------
-0-0---011--0---------000-0--0-0-0-----------0---0
--0-----00-0---------0-*00-00-0-0-0--------00-0-0-
----------------------1-000--0-0-0--------0-00-0-0
----0---0-0------------0-10---0-0--------0-0-00-0-
-0-0-0-0-0-0----0--0----1---0--0--------0-0-0-00--
0---0-0-000-0--0-0--0------0-0-0---------0-0-0----
-----0-01*00-00-0-0--0----000-0-0---------010--0--
-------0000000-0-0-0--0--0-*00-0-0--------010-0-0-
------0--0*10-0-0-0-------1-010---0--0---0-----0-0
----------00--00-0-----------*0-----0-0-0---0---0-
----0-0-0----0-00------0---------0-0-0-0-----0-0-0
---0-----0-00-0-0-------0----0--0---0-0---------0-
--0-0-0----0-0-0-0-------0----00-0---0-0-00--0-0--
-0-0---0---00-0-0-------0-0---0-0-0---0--0-10-----
--0-0-----0--0-0-------0-0-----0-0-0-0--00--0-----
---0-0-0-0----------------0-----0-0----01-.-10----
----0---0----0-0-------0---0-----0-----0-0-01-----
------------0-0-0---0-0-----------------1-.0------
-----------0-0---0-0-------0----------0--0*---1---
------------00------0-0--------------0-0-0---1-1--
------0-----0-1--0-----0---0--------010--10-*-0--0
--0--0-0---00*-0-10-------0---------010-1-00-1--0-
-0-00---0-0--00---0----0-0---------0-0---0000--0--
0-0-1----0-------000----0-----------00---1*10-0---
-00*10----0--11-11*10-----------00---00--000------
000-10-----0--1-0000----0------0100---0-0-0-------
01-0--000-0-0-00110----0-0----00*000--0--00-------
--1---1-0--0-0--0-----0-0-0--0-000-000-0-0-0------
0----0-*00--0---0-0--0-0-0-0--0-0-0---0-0-0-------
-0--1-01010----0-0-0--0-000----010--0--0----------
0-0--101010---0---0-0--0110----010-0-0----0-------
-0-0-00*00-------------000-0----000-0--0-0--------
--0---010-----0---0-0-0-0-0-0---0110--0-0---0---0-
-------0-----0-0-0---0-0-0-0---0-000--00-------0-0
---------0-0--0-----0-0-0-0---0-0-0-00-0----0-0-0-
--------0---0--0-----0---0-----0-0-00-0-0--0--0---
-------0-----0--0------------0--0-00-0-0110101100-
------0-------0--0---0------0-0--0--0-0-000*--0010
-------0-----0--0-0-0-0----0---0-----0-0-00*---010
--------0---0----0---0----0-----0-----0-0--10-0-0-

*** Life<Cell> 17x28 ***

Generation = 0, Population = 88.
------------0------------00-
-------0--000-----0--00-----
-------0--------------0-----
-------0-------------------0
--0---0--0-----0-0-0-0------
---0--------0--0-0---0--0---
----0-----------------------
----0------0-0--00---0--0---
-------0--------00---000-0-0
--0--------0----0-----00----
-----------00-0-0-0---------
-----------00-------0--00--0
--0---0--------00--0-0---000
-----0-------0---00-----0-0-
-----------------0----00----
000--0-----0-----0-0--------
0-----0----------------0-0--

Generation = 1, Population = 183.
-------0--0-10----0--00-0110
------01001--0---0-001-0-00-
------0-0-000-----0---10---0
--0----100-----0-0-0-00---0-
-0---0--0-0-0-01-1---10-0--0
------0--0-0-001-1000100-0--
----10-----000-00-----------
---010-0--0---00--0-01-----0
--0-0-0-0----0-01-0-0-1-0---
-0-0---0--01--00--0-----00-0
--0-------01----1--00-0-0--0
--0---0---0--000--0---011--1
-0-0---0---000011---0-00011-
--0-0-------0-00--1--00--01-
000--------0-0--0--0-011--0-
--100-----0-0---01--0-0--0--
1-0----0---0-----0-0--0---0-

Generation = 2, Population = 198.
-------1--1-*-0-------101**1
-----0-*1-*-010-0--1---10--0
--0--01-----1--0-0-000--000-
---0-0-*-100---1-10---1-00-0
0---0---1--0-0-*-----*10----
-0--00-0--01--1*0----*110-00
-------0-0-----11--0--00-0-0
---1--0--0--0011001--*--0-0-
----10---0-00--1*---10--1---
0--------0--0-1-001----011-1
--1---00-01-00-0-0011-10--0-
--1--0---010--1-00---01**--*
0-------0--111--*0-0-0111*--
0010-0-0---01---00----10--*0
1-1-------------1---0--*0010
--*-10-0-0-----0--00-0--0-0-
--1-0-0-0--------1---010---0

Generation = 3, Population = 220.
-----00*-0*-*0100--0-0*1***-
--0-010**-.-1--0--0*-1--1001
-0--01*000--*--1010--1--1110
0---010*0*---00---1-00*0--0-
----10-0--0---0.-10-0.--000-
--00-1-1--1-0-*.-1-00.--101-
-0-010-1-1-0000**---00-----1
--0-----0-0-------*--*--10--
0---*1--0--11-0-.0-0*-1---00
-00-00000----0---1---0--**0-
00*0--11-1-1-1---11-*0-10--0
00*00--0--*-00-0-1-----..--.
1--0-------***-1.1------**--
1-*1------0----01-100--100.-
*0--0----0-00---*-0----.1---
00*--10-0-0---0---1101-01010
-0*-10-0-------00--00--1----
