*** Life<ConwayCell> 10x10 ***

Generation = 0, Population = 28.
*.*......*
..*.......
..*.......
.*.*....*.
.*..**...*
.***..*...
.....*....
...*.....*
.****.*...
*...*.*..*

Generation = 2, Population = 15.
..*.......
...*......
.*........
.....*....
*....*....
**........
.....*....
.....*....
.*..**....
.**.......

Generation = 4, Population = 16.
..........
..........
..........
..........
**........
**........
..........
....***...
.******...
.***......

Generation = 6, Population = 11.
..........
..........
..........
..........
**........
**........
.*........
.....**...
.**..**...
..........

Generation = 8, Population = 10.
..........
..........
..........
..........
.*........
..*.......
*.........
***..**...
.....**...
..........

Generation = 10, Population = 11.
..........
..........
..........
..........
..........
.*........
*.*.......
*.*..**...
**...**...
..........

*** Life<ConwayCell> 10x10 ***

Generation = 0, Population = 27.
*.........
*.....*.*.
.*..*....*
*.****.*..
.*.......*
...*......
..*......*
*....*...*
*..***...*
.......*..

Generation = 2, Population = 26.
..........
*.*....*..
....*.***.
*...***.*.
.*..*.....
..........
..*.......
.....*****
...*..****
....*.....

Generation = 4, Population = 24.
.......*..
.......**.
..***.*.**
..*....*..
...***....
.......*..
......***.
.....***.*
.........*
........*.

Generation = 6, Population = 25.
.......**.
..**..*..*
..**.**..*
..*.*.*.*.
...**.....
...*...*..
.....*..*.
.....*..*.
......*.*.
..........

Generation = 8, Population = 34.
...******.
..*****..*
.*..*...**
.***......
..*.**.*..
...*....*.
....*.*.**
.....*...*
......***.
..........

Generation = 10, Population = 35.
........*.
.**....*.*
.**.....**
***.....**
..*.**.***
...*..*..*
....**.*..
....**...*
......***.
......***.

*** Life<ConwayCell> 10x10 ***

Generation = 0, Population = 25.
....*.*...
....***...
*.....*.**
....*.*...
....**....
.*........
....***...
***...*...
..........
*.*...*..*

Generation = 2, Population = 24.
..........
...**.**..
...**.*...
...**.**..
....*..*..
....*.*...
.*...***..
*.*..**...
.*........
..........

Generation = 4, Population = 20.
..........
...*......
...*.*....
......**..
.....***..
...***....
.*.****...
*.*...*...
.*........
..........

Generation = 6, Population = 25.
..........
.....*....
...**.....
.....***..
...*..***.
..*...**..
.*..****..
*.**.*....
.***......
..........

Generation = 8, Population = 23.
..........
..........
...***....
....*.....
..*.......
..***.....
.**.**....
****.*....
.****.....
..**......

Generation = 10, Population = 13.
..........
...***....
...*......
..........
..........
...***....
.....**...
**........
**........
..........

*** Life<ConwayCell> 10x10 ***

Generation = 0, Population = 27.
.**.......
.*.***....
....*..*..
....*.....
........*.
*.*..*...*
.....*....
..********
...*..*...
....*.*...

Generation = 2, Population = 16.
.*...*....
.*...*....
....*.....
..........
..........
..........
.***...*..
...*...*.*
..**...**.
..........

Generation = 4, Population = 14.
..........
..........
..........
..........
..........
..**......
.***...*..
.*..*.*...
..**..***.
..........

Generation = 6, Population = 10.
..........
..........
..........
..........
..........
..*.......
**.**.....
.*........
..**....*.
.......*..

Generation = 8, Population = 9.
..........
..........
..........
..........
..*.......
**.*......
...**.....
*..*......
.*........
..........

Generation = 10, Population = 11.
..........
..........
..........
..........
.***......
....*.....
**...*....
.**.*.....
...*......
..........

*** Life<ConwayCell> 10x10 ***

Generation = 0, Population = 27.
.*.*.*...*
**..*..*..
..........
.*........
...*.*..*.
*..*..**..
..*.**....
*...*...*.
..*..*....
.**......*

Generation = 2, Population = 22.
*.*.......
..........
*.*.......
.*........
..*..***..
.**.....*.
.*..*..*..
.*..*.*...
...*......
.***......

Generation = 4, Population = 23.
..........
..........
.**.......
.**...**..
.....***..
*..*.*..*.
*....*....
*....**...
.*...*....
..***.....

Generation = 6, Population = 24.
..........
..........
.**.......
*...***...
.*****.**.
*.*..*....
**........
...*......
*.....*...
.*..**....

Generation = 8, Population = 17.
..........
..........
......*...
*.....**..
*....*.*..
*.*...*...
..*.......
*.*.......
....**....
....**....

Generation = 10, Population = 15.
..........
..........
......**..
.....*.**.
.....*.*..
......*...
..**......
..........
..**.*....
...*.*....

*** Life<ConwayCell> 10x10 ***

Generation = 0, Population = 27.
**.*.....*
...*.**...
**...*....
...*.*.**.
*.*.......
.*...*..*.
....*..*..
.***..*...
*.........
......*...

Generation = 2, Population = 30.
.....*....
...****...
.*.**..*..
..*.*...*.
*.*...**..
**......*.
**.****...
*....**...
.*.*......
..........

Generation = 4, Population = 27.
.....**...
..........
..*.*.....
.**.**..*.
.**...***.
.*..***.*.
..*.*.**..
...*.***..
..........
..........

Generation = 6, Population = 28.
..........
....**....
...*......
.*.**.****
....*...**
.*.....**.
..*..*.**.
...*****..
....***...
..........

Generation = 8, Population = 15.
..........
...*...*..
..*...***.
.*........
..*....*..
......*...
..***.....
...*......
....*.....
..........

Generation = 10, Population = 17.
.......*..
......*.*.
.**..*...*
.**...*.*.
.**.......
..*.......
.**.......
..*.......
..........
..........

*** Life<ConwayCell> 10x10 ***

Generation = 0, Population = 28.
...**.....
*.*...*...
*.*...*...
...*.....*
**.*.....*
*.....*..*
.*.*..*...
..*.......
*..*....**
.*..*....*

Generation = 2, Population = 21.
..........
..*.*.....
.****.....
*..*......
*.*.......
*.........
*..*......
*.........
.*.*....**
..*.....**

Generation = 4, Population = 22.
..........
.***......
***.**....
**........
**........
*.........
..*.......
..........
*..*....**
.**.....**

Generation = 6, Population = 13.
...*......
...**.....
...**.....
..........
..........
..........
..........
..........
.**.....**
.**.....**

Generation = 8, Population = 11.
...*......
..*.......
...*......
..........
..........
..........
..........
..........
.**.....**
.**.....**

Generation = 10, Population = 8.
..........
..........
..........
..........
..........
..........
..........
..........
.**.....**
.**.....**

*** Life<ConwayCell> 10x10 ***

Generation = 0, Population = 23.
..*.....*.
....***..*
..*.......
.****.....
..*.....*.
.....*....
..*.......
**........
..**.*..**
........*.

Generation = 2, Population = 20.
....*.....
..*.*.....
.**.......
*..*......
.**.......
.**.......
..*.......
**........
.**.....**
........**

Generation = 4, Population = 23.
..*.......
.*.*......
*..*......
*..*......
..***.....
.***......
.*........
*.*.......
**......**
.*......**

Generation = 6, Population = 30.
..*.......
**.**.....
**.**.....
*****.....
..........
...**.....
*.**......
*.**......
*.*.....**
**......**

Generation = 8, Population = 25.
.***......
.****.....
....**....
..........
.**.*.....
..**......
...*......
.*........
*.*.....**
***.....**

Generation = 10, Population = 25.
..........
.***.*....
..*...*...
.*...*....
.**..*....
.*.*......
.*.*......
.***......
*.**....**
........**

*** Life<ConwayCell> 10x10 ***

Generation = 0, Population = 26.
*..*......
...*.*....
...*....*.
..**......
..*.......
**...*....
*.**.....*
..**.*....
.*.**.**..
*..*......

Generation = 2, Population = 22.
...*......
..***.....
....*.....
....*.....
.*..*.....
.*.**.....
....*.....
....***...
..**..*...
..****....

Generation = 4, Population = 13.
..*.*.....
..*.......
..........
......*...
..*...*...
..*..*....
..........
.....*....
....*.*...
...*.*....

Generation = 6, Population = 5.
..........
..........
..........
..........
..........
..........
..........
.....*....
....*.*...
....**....

Generation = 8, Population = 5.
..........
..........
..........
..........
..........
..........
..........
.....*....
....*.*...
....**....

Generation = 10, Population = 5.
..........
..........
..........
..........
..........
..........
..........
.....*....
....*.*...
....**....

*** Life<ConwayCell> 10x10 ***

Generation = 0, Population = 24.
**....*.*.
..***.*.*.
....*.**..
...*.....*
.*........
.........*
*......**.
...*......
.*....*..*
......*...

Generation = 2, Population = 14.
.*...*....
......*.*.
.**.*.*.*.
.......*..
..........
..........
........**
.......**.
..........
..........

Generation = 4, Population = 13.
..........
.....***..
.....**...
......**..
..........
........*.
.......*.*
.......*.*
........*.
..........

Generation = 6, Population = 15.
......*...
......*...
.....*.*..
......**..
.......**.
.......**.
.......*.*
.......*.*
........*.
..........

Generation = 8, Population = 15.
......*...
.....*.*..
.....*.*..
..........
..........
......***.
......**.*
......**.*
........*.
..........

Generation = 10, Population = 16.
......*...
......*...
..........
..........
.......*..
......***.
.....*****
......**.*
.......**.
..........

*** Life<ConwayCell> 10x10 ***

Generation = 0, Population = 27.
.*....**.*
.....*.*..
.........*
.........*
*.*.......
....*.*...
..**...**.
*...***.**
**.......*
.......*.*

Generation = 2, Population = 24.
......***.
......*...
..........
..........
..........
..*.....*.
.....*****
*.**.....*
****...*.*
......***.

Generation = 4, Population = 30.
......**..
......**..
..........
..........
..........
..*...*.**
.*******.*
*...**...*
*..****..*
.**...*.*.

Generation = 6, Population = 27.
......**..
......**..
..........
..........
..........
.***...***
*.**..**.*
*..*.....*
*...**...*
.*..***...

Generation = 8, Population = 26.
......**..
......**..
..........
..........
..*....**.
.***.**..*
*...*....*
*.**....*.
**.*..**..
.....*....

Generation = 10, Population = 23.
......**..
......**..
..........
..*....*..
.*......*.
*........*
*........*
*.*......*
**..*.*.*.
.....***..

*** Life<ConwayCell> 10x10 ***

Generation = 0, Population = 26.
*.....*...
.*.....*.*
*......*..
........*.
.*.*..*..*
......*.*.
**..*...*.
.*........
.**..*..**
**........

Generation = 2, Population = 19.
.......*..
......***.
..........
.......*.*
.*........
*.*....*.*
*.*....*..
.*......*.
..*.......
.**.......

Generation = 4, Population = 16.
......*.*.
.....*..*.
......*...
..........
.*........
*.*.......
*.**......
..**......
...*......
.**.......

Generation = 6, Population = 13.
......*...
......*...
..........
..........
.**.......
.**.......
.***......
..*.......
.*.*......
..*.......

Generation = 8, Population = 6.
..........
..........
..........
..........
.*........
.**.......
..........
..*.......
..*.......
..*.......

Generation = 10, Population = 9.
..........
..........
..........
..........
.**.......
*..*......
.**.......
...*......
..*.......
..*.......

*** Life<ConwayCell> 10x10 ***

Generation = 0, Population = 24.
....**..*.
.**.......
....*.....
..*.*...*.
*.*..*..*.
.....*.*..
.*........
..*..**...
**..*...**
..........

Generation = 2, Population = 22.
....*.....
..***.....
.**.......
**.....*..
**.*...*..
..*.......
.*...**...
.*..***...
.*........
..........

Generation = 4, Population = 17.
...*......
.*.*......
.*........
..........
.*........
*.**.*....
......**..
*.*.*.*...
.*...*....
..........

Generation = 6, Population = 13.
..........
..........
..........
.**.......
.**.......
.....***..
..**......
.**....*..
......*...
..........

Generation = 8, Population = 13.
..........
..........
..........
.**.......
*..*......
*..*..**..
*...*.....
.*.*......
..*.......
..........

Generation = 10, Population = 10.
..........
..........
..........
.**.......
*..**.....
..........
..........
*...*.....
.***......
..........

*** Life<ConwayCell> 10x10 ***

Generation = 0, Population = 26.
..*.*...*.
.*......*.
..*..*.*..
**....*...
......*...
......*.*.
.....**.*.
.......*..
*.*..*.*..
.*..*..**.

Generation = 2, Population = 18.
..*.......
.***..***.
*..*.*....
.*........
..........
..........
.....*..*.
.....*..*.
..........
......***.

Generation = 4, Population = 15.
.*.**.**..
**......*.
..***.**..
..........
..........
..........
..........
..........
.......*..
.......*..

Generation = 6, Population = 9.
*.*.......
...*...**.
**.*......
...*......
..........
..........
..........
..........
..........
..........

Generation = 8, Population = 6.
..........
...**.....
..***.....
...*......
..........
..........
..........
..........
..........
..........

Generation = 10, Population = 7.
..........
...*......
.**.*.....
..**......
...*......
..........
..........
..........
..........
..........

*** Life<ConwayCell> 10x10 ***

Generation = 0, Population = 29.
.*.**.*..*
.....*.*..
.......*..
......**..
*....*.*..
..*.*.....
..**.**.**
......*.*.
..*..*..**
......**..

Generation = 2, Population = 23.
....*.**..
....*...*.
.........*
..........
..........
.**......*
......*.**
..*...*...
...***..**
......****

Generation = 4, Population = 18.
.......**.
.......**.
..........
..........
..........
.......*.*
..**...*.*
......**.*
.......**.
...*..*.*.

Generation = 6, Population = 8.
.......**.
.......**.
..........
..........
..........
..........
........*.
.........*
........**
..........

Generation = 8, Population = 8.
.......**.
.......**.
..........
..........
..........
..........
..........
........**
........**
..........

Generation = 10, Population = 8.
.......**.
.......**.
..........
..........
..........
..........
..........
........**
........**
..........

*** Life<ConwayCell> 10x10 ***

Generation = 0, Population = 29.
....**..*.
.*.....*..
.**.**...*
*.........
.*.*.*..*.
*....*..**
*....*....
.*.*...*..
.*...*...*
..**......

Generation = 2, Population = 28.
..*.......
*..*......
*...*.....
...**.....
..*.*.****
..*.*.*...
...**.*.**
....*..*..
*...**....
..**......

Generation = 4, Population = 25.
..........
..........
...**.....
....*.*.*.
....*.*.*.
....*.*.*.
...*..*.*.
....*.*.*.
...*****..
...***....

Generation = 6, Population = 12.
..........
....*.....
...***....
..........
........**
..*...*...
...**.....
........**
..........
..........

Generation = 8, Population = 6.
....*.....
...*.*....
..........
...***....
..........
..........
..........
..........
..........
..........

Generation = 10, Population = 8.
..........
...***....
...*.*....
...***....
..........
..........
..........
..........
..........
..........

*** Life<ConwayCell> 10x10 ***

Generation = 0, Population = 28.
..*.......
...***...*
*....*.***
.*...**...
*....*.*..
......*...
..*..*....
.....*..*.
*****.....
....*.*...

Generation = 2, Population = 24.
...*......
...*.***.*
...*...***
....**.*..
..........
....*..*..
....*.....
..**.**...
.*........
.*..**....

Generation = 4, Population = 29.
...*.***..
..*******.
..****....
...**.**..
....*.**..
....*.*...
....*.....
..*...*...
...*.*....
..........

Generation = 6, Population = 17.
..........
.......***
.......**.
..........
....****..
...***....
..*...*...
...**.....
....*.....
..........

Generation = 8, Population = 19.
........*.
.......*.*
......**.*
......***.
....*.**..
..**......
..*.......
..*..*....
...*.*....
..........

Generation = 10, Population = 17.
.......**.
.......*.*
........*.
..........
..***.....
.*.**.....
.*..*.....
.**.*.....
....*.....
..........

*** Life<ConwayCell> 10x10 ***

Generation = 0, Population = 24.
..*.....*.
....*.....
....*.*..*
..........
*.........
*......*..
.*...**...
..*...*...
.*.*..*.**
..***...**

Generation = 2, Population = 25.
..........
....*.....
....*.....
..........
..........
**...***..
.....*.*..
***.*...*.
.*..***..*
..****.*.*

Generation = 4, Population = 17.
..........
..........
..........
..........
......*...
....**.**.
..*..*....
*.*.*....*
*...*.*..*
.......**.

Generation = 6, Population = 18.
..........
..........
..........
......*...
....**.*..
....*...*.
......**..
..*.*..**.
....*.**..
......***.

Generation = 8, Population = 12.
..........
..........
..........
....*..*..
....*..*..
...*......
...*.*.*..
..**......
....*..*..
..........

Generation = 10, Population = 11.
..........
..........
..........
..........
...**.....
..**......
...**.....
..***.....
..**......
..........

*** Life<ConwayCell> 10x10 ***

Generation = 0, Population = 27.
.***......
..*...*...
..*...**..
.**..*.*..
*.*...*...
......*...
..**.*...*
...*....*.
....**.*..
.......*.*

Generation = 2, Population = 25.
..*.......
.*..*.**..
..**.*.**.
.*...*.**.
.......*..
.*.....*..
.......*..
..*...*...
...**...*.
.....**...

Generation = 4, Population = 29.
.....***..
.*.*****..
.*.....*..
.**.*.....
......***.
........*.
..........
...***..*.
...*..**..
...****...

Generation = 6, Population = 32.
..........
.*.....**.
*..*...**.
***...*.*.
........**
.......**.
...**.**..
...*****..
..*.....*.
...*****..

Generation = 8, Population = 22.
..........
.......**.
*......**.
*.*.......
***.......
..........
..........
..**......
..*.***.*.
...*****..

Generation = 10, Population = 17.
..........
.......**.
.*.....**.
*.*.......
*.*.......
.*........
..***.....
..***.....
..*.......
..........

*** Life<ConwayCell> 10x10 ***

Generation = 0, Population = 27.
*......*..
...*.**...
..........
**.......*
***..*.*..
.*........
.....*.***
....*..*.*
........*.
.*.*.**.*.

Generation = 2, Population = 17.
..........
..........
..........
.*........
*.**......
.**...***.
.*........
.........*
.....*...*
.....****.

Generation = 4, Population = 19.
..........
..........
..........
.**.......
*..*......
*..*..**..
.**....**.
......**..
.....*.*..
.....*.**.

Generation = 6, Population = 12.
..........
..........
..........
.**.......
*..*...*..
*..*...**.
.**.....*.
..........
..........
..........

Generation = 8, Population = 14.
..........
..........
..........
.**.......
*..*...**.
*..*..*..*
.**....**.
..........
..........
..........

Generation = 10, Population = 14.
..........
..........
..........
.**.......
*..*...**.
*..*..*..*
.**....**.
..........
..........
..........

*** Life<ConwayCell> 10x10 ***

Generation = 0, Population = 26.
..*..*.*.*
...*....*.
...**...*.
.*......*.
*..*.**...
**......*.
..*.....*.
.*.......*
.......*..
*..**.....

Generation = 2, Population = 22.
.......***
..*.*.....
.*.......*
.......*..
*......**.
*.**...*..
*.*....***
........**
..........
..........

Generation = 4, Population = 16.
..........
..........
..........
......***.
.**...*.*.
...*..*..*
.***..**.*
..........
..........
..........

Generation = 6, Population = 20.
..........
..........
.......*..
.....**.**
....*...**
...*.....*
..*******.
..**...*..
..........
..........

Generation = 8, Population = 14.
..........
.......*..
.....****.
....*.....
....*..**.
....*.....
.....*...*
.....*..*.
..........
..........

Generation = 10, Population = 10.
..........
........*.
.....**.*.
...*...*..
...*......
......*...
....**....
..........
..........
..........

*** Life<ConwayCell> 10x10 ***

Generation = 0, Population = 30.
..**......
*.*..*....
**.****...
.*........
*....***..
.*......*.
..*.*..***
*.*.**....
.*.......*
......*...

Generation = 2, Population = 31.
.**.......
*.....*...
*.***..*..
..***..*..
*.....***.
***.**...*
.**......*
.**......*
....**....
..........

Generation = 4, Population = 21.
..........
.*...**...
.*..*.*...
.*..*...*.
..*.....*.
.*...*...*
....*.****
..*.......
..*.......
..........

Generation = 6, Population = 22.
..........
.*...***..
*...*..*..
....**.*..
.*.***.***
.....*....
....**...*
.........*
..........
..........

Generation = 8, Population = 13.
.....***..
.....*..*.
.....*..*.
......*...
.......**.
...*....*.
....*.....
..........
..........
..........

Generation = 10, Population = 14.
....****..
....*...*.
....*...*.
.....*..*.
......*..*
.......**.
..........
..........
..........
..........

*** Life<ConwayCell> 10x10 ***

Generation = 0, Population = 25.
..***....*
.**....*.*
.*..*..*.*
......*.*.
....*...*.
..........
*..*...*..
....*.....
**....*...
.*.....*..

Generation = 2, Population = 19.
.***......
*......*.*
.**..***.*
.........*
........*.
..........
..........
**........
..*.......
**........

Generation = 4, Population = 10.
.**.......
*.....***.
..........
......**..
..........
..........
..........
..........
.**.......
..........

Generation = 6, Population = 2.
..........
.......**.
..........
..........
..........
..........
..........
..........
..........
..........

Generation = 8, Population = 0.
..........
..........
..........
..........
..........
..........
..........
..........
..........
..........

Generation = 10, Population = 0.
..........
..........
..........
..........
..........
..........
..........
..........
..........
..........

*** Life<ConwayCell> 10x10 ***

Generation = 0, Population = 26.
.*..*.*...
....*...*.
.**.......
..**.....*
..........
*..*.***..
*...*...*.
..*.....*.
**......*.
..**.....*

Generation = 2, Population = 24.
..*.*.....
.*.**.....
*...*.....
....*.....
.*....**..
..........
...*.....*
**.*.**...
**.....*.*
.**.......

Generation = 4, Population = 20.
.**.**....
.**.......
...*..*...
....**....
..........
..........
.*.*.*....
.*.*...*..
..*..*.*..
.*........

Generation = 6, Population = 13.
.****.....
.*...*....
..*...*...
.....*....
..........
..........
..........
.*.*......
.**.......
..........

Generation = 8, Population = 14.
.*****....
.*....*...
....***...
..........
..........
..........
..........
.**.......
.**.......
..........

Generation = 10, Population = 16.
.*****....
.*.*..*...
.....**...
.....**...
..........
..........
..........
.**.......
.**.......
..........

*** Life<ConwayCell> 10x10 ***

Generation = 0, Population = 27.
**....***.
..*.....*.
....**....
...*.*....
.*.*..*...
...*...*..
..*.***..*
.......*..
.*........
.*.*...**.

Generation = 2, Population = 23.
......***.
..*..**.*.
...*...*..
..*...*...
...*.***..
..**....*.
...*....*.
...*......
......**..
..........

Generation = 4, Population = 15.
.....***..
.....*..*.
..*..*....
.......*..
.......*..
..*...*...
..***..*..
..........
..........
..........

Generation = 6, Population = 18.
....**.*..
....*..*..
......**..
.....**...
.....*....
..**..**..
..**......
..**......
..........
..........

Generation = 8, Population = 20.
....****..
....*..**.
.......*..
....**.**.
.......*..
..*...*...
.*..**....
..**......
..........
..........

Generation = 10, Population = 25.
....*****.
...*....*.
....**.**.
....**.**.
.....*..*.
.......*..
..*...*...
..****....
...*......
..........

*** Life<ConwayCell> 10x10 ***

Generation = 0, Population = 26.
**....*.*.
*....*..*.
....*.....
*..*....*.
*.....*...
...**..**.
.*....**..
..*.*.....
.*.......*
...*..*...

Generation = 2, Population = 27.
**....*...
**....*...
..........
...**.....
....*.....
........**
.********.
.*..****..
.***......
..........

Generation = 4, Population = 29.
**........
**........
..........
...**.....
..*.**....
.*..*...**
.***...*.*
*....*....
.*****....
.**.**....

Generation = 6, Population = 29.
**........
**........
....*.....
...***....
..*...*...
*....*..**
*.**..*.**
*.*****...
**....*...
..........

Generation = 8, Population = 37.
**........
***.*.....
..**.*....
..*...*...
......**..
.******.**
..*.*.*.**
*...*.*...
*****.....
.***......

Generation = 10, Population = 37.
.*........
.*.***....
..........
..**..**..
.*..*.***.
.**..*.*.*
..*..*.***
.*.**.***.
**.***....
....**....

*** Life<ConwayCell> 10x10 ***

Generation = 0, Population = 25.
.**......*
...*.*.*.*
**.*.*....
...*......
..*...*...
.*......*.
..*..***..
*.......*.
......*...
*......*..

Generation = 2, Population = 19.
.......*..
..**......
...*.*.*..
...**.....
....*.....
.**...**..
.**..***..
........*.
..........
..........

Generation = 4, Population = 16.
...*......
...*......
..*..*....
...*.*....
.*...**...
.....**...
.*.*....*.
......**..
..........
..........

Generation = 6, Population = 14.
...*......
..*.*.....
.*........
..**......
...**.....
....***...
....**.*..
..........
..........
..........

Generation = 8, Population = 10.
..**......
..**......
.*..*.....
.***......
..*.......
..........
..........
..........
..........
..........

Generation = 10, Population = 15.
..**......
.*..*.....
**.**.....
**.**.....
.*.*......
..*.......
..........
..........
..........
..........

*** Life<ConwayCell> 10x10 ***

Generation = 0, Population = 26.
.*...*...*
...*.....*
..**....*.
.*..*.*...
........**
..*.......
*..*...**.
.....*...*
.*...*..**
....**....

Generation = 2, Population = 18.
..........
..*.*.....
.......*..
..*.*...*.
.......*.*
........*.
......*..*
......*..*
........**
....***...

Generation = 4, Population = 12.
..........
..........
..........
.......**.
......*..*
......*...
......*...
..........
......**.*
......***.

Generation = 6, Population = 13.
..........
..........
..........
.......**.
.....*..*.
.....***..
.....*....
......**..
.....**...
.......*..

Generation = 8, Population = 11.
..........
..........
..........
.......**.
....**..*.
....**....
....**....
......*...
......*...
..........

Generation = 10, Population = 9.
..........
..........
..........
.....*..*.
....**..*.
...*......
......**..
.....*....
..........
..........

*** Life<ConwayCell> 10x10 ***

Generation = 0, Population = 27.
..***...**
.***..*...
..*.....*.
..*..*....
.*........
*.......*.
*.**......
..*.......
.....*...*
.***.*.*..

Generation = 2, Population = 15.
........*.
........*.
.**.....*.
.**.......
*.........
..**......
..........
.*........
.*..*.....
..*.*.....

Generation = 4, Population = 12.
........*.
........*.
.**.....*.
..**......
..........
..........
..........
.*.*......
..**......
...*......

Generation = 6, Population = 15.
........*.
..*.....*.
.*.*....*.
.*.*......
..*.......
..........
..........
...**.....
....*.....
..***.....

Generation = 8, Population = 15.
........*.
..*.....*.
.*.*....*.
.*.*......
..*.......
..........
..........
...**.....
..*..*....
...**.....

Generation = 10, Population = 15.
........*.
..*.....*.
.*.*....*.
.*.*......
..*.......
..........
..........
...**.....
..*..*....
...**.....

*** Life<ConwayCell> 10x10 ***

Generation = 0, Population = 25.
..*....*..
*..*......
.*..**....
.*.....*.*
..**..*..*
.*.*.....*
........*.
..*.......
**........
*.....**.*

Generation = 2, Population = 20.
..**......
*...*.....
*.........
.....*....
...*.*.*.*
...*....**
..*.......
***.......
..*.......
**........

Generation = 4, Population = 16.
..*.......
..*.......
..........
.....*....
....*..***
..*.*...**
.*........
.*........
.***......
..........

Generation = 6, Population = 17.
..........
..........
..........
....*...*.
...**.**.*
...*..*...
***.......
*.........
*.*.......
.**.......

Generation = 8, Population = 19.
..........
..........
....*.....
...*.*..*.
..........
**......*.
*...***...
*.**......
*.**......
.**.......

Generation = 10, Population = 17.
..........
..........
..........
..........
..........
****.*....
*.**.**...
*.*..*....
*..*......
.**.......
